AED DPLYR - Aula 2
…
3.3
mutate()

O que faz: adiciona novas colunas ou modifica as variáveis atuais no
conjunto de dados.

diamonds

## # A tibble: 53,940 × 10
##    carat cut       color clarity depth table price     x     y     z
##    <dbl> <ord>     <ord> <ord>   <dbl> <dbl> <int> <dbl> <dbl> <dbl>
##  1  0.23 Ideal     E     SI2      61.5    55   326  3.95  3.98  2.43
##  2  0.21 Premium   E     SI1      59.8    61   326  3.89  3.84  2.31
##  3  0.23 Good      E     VS1      56.9    65   327  4.05  4.07  2.31
##  4  0.29 Premium   I     VS2      62.4    58   334  4.2   4.23  2.63
##  5  0.31 Good      J     SI2      63.3    58   335  4.34  4.35  2.75
##  6  0.24 Very Good J     VVS2     62.8    57   336  3.94  3.96  2.48
##  7  0.24 Very Good I     VVS1     62.3    57   336  3.95  3.98  2.47
##  8  0.26 Very Good H     SI1      61.9    55   337  4.07  4.11  2.53
##  9  0.22 Fair      E     VS2      65.1    61   337  3.87  3.78  2.49
## 10  0.23 Very Good H     VS1      59.4    61   338  4     4.05  2.39
## # ℹ 53,930 more rows

data <- diamonds %>% 
  mutate(JustOne = 1,
         Values = "something",
         Simple = TRUE)

data

## # A tibble: 53,940 × 13
##    carat cut    color clarity depth table price     x     y     z JustOne Values
##    <dbl> <ord>  <ord> <ord>   <dbl> <dbl> <int> <dbl> <dbl> <dbl>   <dbl> <chr> 
##  1  0.23 Ideal  E     SI2      61.5    55   326  3.95  3.98  2.43       1 somet…
##  2  0.21 Premi… E     SI1      59.8    61   326  3.89  3.84  2.31       1 somet…
##  3  0.23 Good   E     VS1      56.9    65   327  4.05  4.07  2.31       1 somet…
##  4  0.29 Premi… I     VS2      62.4    58   334  4.2   4.23  2.63       1 somet…
##  5  0.31 Good   J     SI2      63.3    58   335  4.34  4.35  2.75       1 somet…
##  6  0.24 Very … J     VVS2     62.8    57   336  3.94  3.96  2.48       1 somet…
##  7  0.24 Very … I     VVS1     62.3    57   336  3.95  3.98  2.47       1 somet…
##  8  0.26 Very … H     SI1      61.9    55   337  4.07  4.11  2.53       1 somet…
##  9  0.22 Fair   E     VS2      65.1    61   337  3.87  3.78  2.49       1 somet…
## 10  0.23 Very … H     VS1      59.4    61   338  4     4.05  2.39       1 somet…
## # ℹ 53,930 more rows
## # ℹ 1 more variable: Simple <lgl>

data %>% 
  mutate(JustOne = 2)

## # A tibble: 53,940 × 13
##    carat cut    color clarity depth table price     x     y     z JustOne Values
##    <dbl> <ord>  <ord> <ord>   <dbl> <dbl> <int> <dbl> <dbl> <dbl>   <dbl> <chr> 
##  1  0.23 Ideal  E     SI2      61.5    55   326  3.95  3.98  2.43       2 somet…
##  2  0.21 Premi… E     SI1      59.8    61   326  3.89  3.84  2.31       2 somet…
##  3  0.23 Good   E     VS1      56.9    65   327  4.05  4.07  2.31       2 somet…
##  4  0.29 Premi… I     VS2      62.4    58   334  4.2   4.23  2.63       2 somet…
##  5  0.31 Good   J     SI2      63.3    58   335  4.34  4.35  2.75       2 somet…
##  6  0.24 Very … J     VVS2     62.8    57   336  3.94  3.96  2.48       2 somet…
##  7  0.24 Very … I     VVS1     62.3    57   336  3.95  3.98  2.47       2 somet…
##  8  0.26 Very … H     SI1      61.9    55   337  4.07  4.11  2.53       2 somet…
##  9  0.22 Fair   E     VS2      65.1    61   337  3.87  3.78  2.49       2 somet…
## 10  0.23 Very … H     VS1      59.4    61   338  4     4.05  2.39       2 somet…
## # ℹ 53,930 more rows
## # ℹ 1 more variable: Simple <lgl>
…
Neste exemplo, vamos agrupar os carros pelo número de cilindros (cyl)
e pelo tipo de transmissão (am). Em seguida, usamos a função summarize
para calcular a média da potência (hp), a média do consumo de
combustível (mpg) e a contagem do número de carros em cada grupo. O
resultado é um novo data frame com as estatísticas resumidas.

mtcars %>%
  group_by(cyl, am)

## # A tibble: 32 × 11
## # Groups:   cyl, am [6]
##      mpg   cyl  disp    hp  drat    wt  qsec    vs    am  gear  carb
##    <dbl> <dbl> <dbl> <dbl> <dbl> <dbl> <dbl> <dbl> <dbl> <dbl> <dbl>
##  1  21       6  160    110  3.9   2.62  16.5     0     1     4     4
##  2  21       6  160    110  3.9   2.88  17.0     0     1     4     4
##  3  22.8     4  108     93  3.85  2.32  18.6     1     1     4     1
##  4  21.4     6  258    110  3.08  3.22  19.4     1     0     3     1
##  5  18.7     8  360    175  3.15  3.44  17.0     0     0     3     2
##  6  18.1     6  225    105  2.76  3.46  20.2     1     0     3     1
##  7  14.3     8  360    245  3.21  3.57  15.8     0     0     3     4
##  8  24.4     4  147.    62  3.69  3.19  20       1     0     4     2
##  9  22.8     4  141.    95  3.92  3.15  22.9     1     0     4     2
## 10  19.2     6  168.   123  3.92  3.44  18.3     1     0     4     4
## # ℹ 22 more rows
…
